[gd_scene load_steps=3 format=3 uid="uid://cw4fjlyj55yhc"]

[ext_resource type="Texture2D" uid="uid://2yc284r1jttn" path="res://assests/objects/points/100.png" id="1_1n3wo"]
[ext_resource type="Script" path="res://assests/objects/points/points.gd" id="1_50cge"]

[node name="points" type="Node2D"]
scale = Vector2(0.3, 0.3)
script = ExtResource("1_50cge")

[node name="Sprite2D" type="Sprite2D" parent="."]
texture = ExtResource("1_1n3wo")

[node name="Timer" type="Timer" parent="."]
wait_time = 0.5
one_shot = true
autostart = true

[connection signal="timeout" from="Timer" to="." method="_on_timer_timeout"]
