[gd_resource type="ShaderMaterial" load_steps=2 format=3 uid="uid://b0d6wc6o5prnu"]

[ext_resource type="Shader" path="res://scenes/game.gdshader" id="1_di26y"]

[resource]
shader = ExtResource("1_di26y")
shader_parameter/levels = 3
shader_parameter/spread = 0.01
